{
  "parent": "betterwithmods_mechanist:block/base/pot",
  "textures": {
    "top": "betterwithmods_mechanist:block/crucible/crucible_top",
    "bottom": "betterwithmods_mechanist:block/crucible/crucible_bottom",
    "side": "betterwithmods_mechanist:block/crucible/crucible_side"
  }
}
