{
	"credit": "Made with Blockbench",
	"parent": "block/block",
	"textures": {
		"particle": "betterwithmods_mechanist:block/millstone/side",
		"side": "betterwithmods_mechanist:block/millstone/side",
		"top": "betterwithmods_mechanist:block/millstone/top",
		"bottom": "betterwithmods_mechanist:block/millstone/bottom"
	},
	"elements": [
		{
			"name": "base",
			"from": [0, 1, 0],
			"to": [16, 15, 16],
			"faces": {
				"north": {"uv": [0, 1, 16, 15], "texture": "#side"},
				"east": {"uv": [0, 1, 16, 15], "texture": "#side"},
				"south": {"uv": [0, 1, 16, 15], "texture": "#side"},
				"west": {"uv": [0, 1, 16, 15], "texture": "#side"},
				"up": {"uv": [0, 0, 16, 16], "texture": "#top"},
				"down": {"uv": [0, 0, 16, 16], "texture": "#bottom"}
			}
		},
		{
			"from": [0, 15, 0],
			"to": [16, 16, 6],
			"faces": {
				"north": {"uv": [0, 0, 16, 1], "texture": "#side"},
				"east": {"uv": [0, 0, 6, 1], "texture": "#side"},
				"south": {"uv": [0, 0, 16, 1], "texture": "#top"},
				"west": {"uv": [0, 0, 6, 1], "texture": "#side"},
				"up": {"uv": [0, 0, 16, 6], "texture": "#top"},
				"down": {"uv": [0, 0, 16, 6], "texture": "#top"}
			}
		},
		{
			"from": [0, 15, 10],
			"to": [16, 16, 16],
			"faces": {
				"north": {"uv": [0, 0, 16, 1], "texture": "#top"},
				"east": {"uv": [0, 0, 6, 1], "texture": "#side"},
				"south": {"uv": [0, 0, 16, 1], "texture": "#side"},
				"west": {"uv": [0, 0, 6, 1], "texture": "#side"},
				"up": {"uv": [0, 10, 16, 16], "texture": "#top"},
				"down": {"uv": [0, 0, 16, 6], "texture": "#top"}
			}
		},
		{
			"from": [0, 15, 6],
			"to": [6, 16, 10],
			"faces": {
				"north": {"uv": [0, 0, 6, 1], "texture": "#top"},
				"east": {"uv": [0, 0, 4, 1], "texture": "#top"},
				"south": {"uv": [0, 0, 6, 1], "texture": "#top"},
				"west": {"uv": [0, 0, 4, 1], "texture": "#side"},
				"up": {"uv": [0, 6, 6, 10], "texture": "#top"},
				"down": {"uv": [0, 0, 6, 4], "texture": "#top"}
			}
		},
		{
			"from": [10, 15, 6],
			"to": [16, 16, 10],
			"faces": {
				"north": {"uv": [0, 0, 6, 1], "texture": "#top"},
				"east": {"uv": [0, 0, 4, 1], "texture": "#side"},
				"south": {"uv": [0, 0, 6, 1], "texture": "#top"},
				"west": {"uv": [0, 0, 4, 1], "texture": "#top"},
				"up": {"uv": [10, 6, 16, 10], "texture": "#top"},
				"down": {"uv": [0, 0, 6, 4], "texture": "#top"}
			}
		},
		{
			"from": [0, 0, 0],
			"to": [16, 1, 6],
			"faces": {
				"north": {"uv": [0, 0, 16, 1], "texture": "#bottom"},
				"east": {"uv": [0, 0, 6, 1], "texture": "#bottom"},
				"south": {"uv": [0, 0, 16, 1], "texture": "#bottom"},
				"west": {"uv": [0, 0, 6, 1], "texture": "#bottom"},
				"up": {"uv": [0, 0, 16, 6], "texture": "#bottom"},
				"down": {"uv": [0, 10, 16, 16], "texture": "#bottom"}
			}
		},
		{
			"from": [0, 0, 10],
			"to": [16, 1, 16],
			"faces": {
				"north": {"uv": [0, 0, 16, 1], "texture": "#bottom"},
				"east": {"uv": [0, 0, 6, 1], "texture": "#bottom"},
				"south": {"uv": [0, 0, 16, 1], "texture": "#bottom"},
				"west": {"uv": [0, 0, 6, 1], "texture": "#bottom"},
				"up": {"uv": [0, 10, 16, 16], "texture": "#bottom"},
				"down": {"uv": [0, 0, 16, 6], "texture": "#bottom"}
			}
		},
		{
			"from": [0, 0, 6],
			"to": [6, 1, 10],
			"faces": {
				"north": {"uv": [0, 0, 6, 1], "texture": "#bottom"},
				"east": {"uv": [0, 0, 4, 1], "texture": "#bottom"},
				"south": {"uv": [0, 0, 6, 1], "texture": "#bottom"},
				"west": {"uv": [0, 0, 4, 1], "texture": "#bottom"},
				"up": {"uv": [0, 6, 6, 10], "texture": "#bottom"},
				"down": {"uv": [0, 6, 6, 10], "texture": "#bottom"}
			}
		},
		{
			"from": [10, 0, 6],
			"to": [16, 1, 10],
			"faces": {
				"north": {"uv": [0, 0, 6, 1], "texture": "#bottom"},
				"east": {"uv": [0, 0, 4, 1], "texture": "#bottom"},
				"south": {"uv": [0, 0, 6, 1], "texture": "#bottom"},
				"west": {"uv": [0, 0, 4, 1], "texture": "#bottom"},
				"up": {"uv": [10, 6, 16, 10], "texture": "#bottom"},
				"down": {"uv": [10, 6, 16, 10], "texture": "#bottom"}
			}
		}
	],
	"groups": [0,
		{
			"name": "top",
			"children": [1, 2, 3, 4]
		},
		{
			"name": "bottom",
			"children": [5, 6, 7, 8]
		}
	]
}
