{
  "credit": "Made with Blockbench",
  "parent": "block/thin_block",
  "textures": {
    "particle": "block/snow",
    "texture": "block/snow"
  },
  "elements": [
    {
      "from": [0, 8, 0],
      "to": [16, 10, 16],
      "color": 5,
      "faces": {
        "north": {"uv": [0, 0, 16, 2], "texture": "#texture"},
        "east": {"uv": [0, 0, 16, 2], "texture": "#texture"},
        "south": {"uv": [0, 0, 16, 2], "texture": "#texture"},
        "west": {"uv": [0, 0, 16, 2], "texture": "#texture"},
        "up": {"uv": [0, 0, 16, 16], "texture": "#texture"},
        "down": {"uv": [0, 0, 16, 16], "texture": "#texture"}
      }
    }
  ]
}
