{
	"credit": "Made with Blockbench",
	"parent": "block/block",
	"textures": {
		"end": "betterwithmods_mechanist:block/axle/axle_end",
		"particle": "betterwithmods_mechanist:block/axle/axle_end",
		"side": "betterwithmods_mechanist:block/axle/axle_side"
	},
	"elements": [
		{
			"name": "axle",
			"from": [6, 0, 6],
			"to": [10, 16, 10],
			"faces": {
				"north": {"uv": [12, 0, 16, 16], "texture": "#side"},
				"east": {"uv": [4, 0, 8, 16], "texture": "#side"},
				"south": {"uv": [0, 0, 4, 16], "texture": "#side"},
				"west": {"uv": [8, 0, 12, 16], "texture": "#side"},
				"up": {"uv": [6, 6, 10, 10], "texture": "#end"},
				"down": {"uv": [6, 6, 10, 10], "texture": "#end"}
			}
		}
	]
}
