{

  "type": "crafting_shaped",
  "pattern": [
    "DD"
  ],
  "key": {
    "D": {
      "item": "minecraft:dirt"
    }
  },
  "result": {
    "item": "betterwithmods_mechanist:dirt_slab",
    "count": 4
  }
}
