{
  "conditions": [
    {
      "type": "betterwithmods_mechanist:config",
      "enabled": "lumber_chopping"
    }
  ],
  "group": "planks",
  "result": {
    "item": "minecraft:birch_planks",
    "count": 3
  },
  "type": "betterwithmods_core:tool_recipe",
  "tool": {
    "type": "betterwithmods_core:tool_ingredient",
    "tooltype": "axe"
  },
  "input": {
    "tag": "minecraft:birch_logs"
  },
  "damageTool": true,
  "additionalDrops": [
    {
      "item": "betterwithmods_mechanist:saw_dust"
    },
    {
      "item": "betterwithmods_mechanist:bark",
      "nbt": {
        "BlockEntityTag": {"parent": {"Name": "minecraft:birch_log"}}
      }
    }
  ],
  "sound": "minecraft:entity.zombie.attack_wooden_door"
}
