{
  "replace": false,
  "values": [
    "betterwithmods_mechanist:dirt_slab",
    "betterwithmods_mechanist:grass_slab",
    "minecraft:grass_path",
    "minecraft:gravel",
    "minecraft:stone",
    "#minecraft:stone_bricks",
    "#minecraft:planks",
    "#minecraft:slabs"
  ]
}
