{
	"credit": "Made with Blockbench",
	"parent": "block/block",
	"textures": {
		"side": "betterwithmods_mechanist:block/vine_trap",
		"particle": "betterwithmods_mechanist:block/vine_trap"
	},
	"elements": [
		{
			"from": [0, 0, 0],
			"to": [16, 2, 16],
			"faces": {
				"north": {"uv": [0, 0, 16, 2], "texture": "#side", "tintindex": 0},
				"east": {"uv": [0, 0, 16, 2], "texture": "#side", "tintindex": 0},
				"south": {"uv": [0, 0, 16, 2], "texture": "#side", "tintindex": 0},
				"west": {"uv": [0, 0, 16, 2], "texture": "#side", "tintindex": 0},
				"up": {"uv": [0, 0, 16, 16], "texture": "#side", "tintindex": 0},
				"down": {"uv": [0, 0, 16, 16], "texture": "#side", "tintindex": 0}
			}
		}
	]
}
