{
	"credit": "Made with Blockbench",
	"parent": "block/block",
	"textures": {
		"side": "betterwithmods_mechanist:block/planter/planter",
		"particle": "betterwithmods_mechanist:block/planter/planter"
	},
	"elements": [
		{
			"name": "bottom",
			"from": [2, 0, 2],
			"to": [14, 2, 14],
			"faces": {
				"north": {"uv": [2, 14, 14, 16], "texture": "#side"},
				"east": {"uv": [2, 14, 14, 16], "texture": "#side"},
				"south": {"uv": [2, 14, 14, 16], "texture": "#side"},
				"west": {"uv": [2, 14, 14, 16], "texture": "#side"},
				"up": {"uv": [2, 2, 14, 14], "texture": "#side"},
				"down": {"uv": [2, 2, 14, 14], "texture": "#side"}
			}
		},
		{
			"name": "east",
			"from": [14, 2, 2],
			"to": [15, 15, 14],
			"faces": {
				"north": {"uv": [0, 0, 1, 15], "texture": "#side"},
				"east": {"uv": [2, 0, 14, 14], "texture": "#side"},
				"south": {"uv": [0, 0, 1, 15], "texture": "#side"},
				"west": {"uv": [2, 1, 14, 14], "texture": "#side"},
				"up": {"uv": [0, 2, 2, 14], "texture": "#side"},
				"down": {"uv": [0, 0, 1, 12], "texture": "#side"}
			}
		},
		{
			"name": "north",
			"from": [1, 2, 1],
			"to": [15, 15, 2],
			"faces": {
				"north": {"uv": [1, 1, 15, 14], "texture": "#side"},
				"east": {"uv": [0, 0, 1, 15], "texture": "#side"},
				"south": {"uv": [1, 1, 15, 14], "texture": "#side"},
				"west": {"uv": [0, 0, 1, 15], "texture": "#side"},
				"up": {"uv": [0, 14, 16, 16], "texture": "#side"},
				"down": {"uv": [0, 0, 14, 1], "texture": "#side"}
			}
		},
		{
			"name": "south",
			"from": [1, 2, 14],
			"to": [15, 15, 15],
			"faces": {
				"north": {"uv": [1, 1, 15, 14], "texture": "#side"},
				"east": {"uv": [0, 0, 1, 15], "texture": "#side"},
				"south": {"uv": [1, 1, 15, 14], "texture": "#side"},
				"west": {"uv": [0, 0, 1, 15], "texture": "#side"},
				"up": {"uv": [0, 0, 16, 2], "texture": "#side"},
				"down": {"uv": [0, 0, 14, 1], "texture": "#side"}
			}
		},
		{
			"name": "west",
			"from": [1, 2, 2],
			"to": [2, 15, 14],
			"faces": {
				"north": {"uv": [0, 0, 1, 15], "texture": "#side"},
				"east": {"uv": [2, 0, 14, 14], "texture": "#side"},
				"south": {"uv": [0, 0, 1, 15], "texture": "#side"},
				"west": {"uv": [2, 1, 14, 14], "texture": "#side"},
				"up": {"uv": [14, 2, 16, 14], "texture": "#side"},
				"down": {"uv": [0, 0, 1, 12], "texture": "#side"}
			}
		},
		{
			"name": "west",
			"from": [0, 15, 0],
			"to": [2, 16, 16],
			"faces": {
				"north": {"uv": [0, 0, 2, 1], "texture": "#side"},
				"east": {"uv": [0, 0, 16, 1], "texture": "#side"},
				"south": {"uv": [0, 0, 2, 1], "texture": "#side"},
				"west": {"uv": [0, 0, 16, 1], "texture": "#side"},
				"up": {"uv": [0, 0, 2, 16], "texture": "#side"},
				"down": {"uv": [14, 0, 16, 16], "texture": "#side"}
			}
		},
		{
			"name": "east",
			"from": [14, 15, 0],
			"to": [16, 16, 16],
			"faces": {
				"north": {"uv": [0, 0, 2, 1], "texture": "#side"},
				"east": {"uv": [0, 0, 16, 1], "texture": "#side"},
				"south": {"uv": [0, 0, 2, 1], "texture": "#side"},
				"west": {"uv": [0, 0, 16, 1], "texture": "#side"},
				"up": {"uv": [14, 0, 16, 16], "texture": "#side"},
				"down": {"uv": [0, 0, 2, 16], "texture": "#side"}
			}
		},
		{
			"name": "north",
			"from": [2, 15, 0],
			"to": [14, 16, 2],
			"faces": {
				"north": {"uv": [0, 0, 12, 1], "texture": "#side"},
				"east": {"uv": [0, 0, 2, 1], "texture": "#side"},
				"south": {"uv": [0, 0, 12, 1], "texture": "#side"},
				"west": {"uv": [0, 0, 2, 1], "texture": "#side"},
				"up": {"uv": [2, 0, 14, 2], "texture": "#side"},
				"down": {"uv": [2, 14, 14, 16], "texture": "#side"}
			}
		},
		{
			"name": "south",
			"from": [2, 15, 14],
			"to": [14, 16, 16],
			"faces": {
				"north": {"uv": [0, 0, 12, 1], "texture": "#side"},
				"east": {"uv": [0, 0, 2, 1], "texture": "#side"},
				"south": {"uv": [0, 0, 12, 1], "texture": "#side"},
				"west": {"uv": [0, 0, 2, 1], "texture": "#side"},
				"up": {"uv": [2, 14, 14, 16], "texture": "#side"},
				"down": {"uv": [2, 0, 14, 2], "texture": "#side"}
			}
		},
		{
			"name": "fill",
			"from": [2, 2, 2],
			"to": [14, 16, 14],
			"faces": {
				"north": {"uv": [0, 0, 12, 1], "texture": "#fill"},
				"east": {"uv": [0, 0, 12, 1], "texture": "#fill"},
				"south": {"uv": [0, 0, 12, 1], "texture": "#fill"},
				"west": {"uv": [0, 0, 12, 1], "texture": "#fill"},
				"up": {"uv": [2, 2, 14, 14], "texture": "#fill"},
				"down": {"uv": [0, 0, 12, 12], "texture": "#fill"}
			}
		}
	],
	"groups": [0,
		{
			"name": "sides",
			"children": [
				{
					"name": "group",
					"children": [
						{
							"name": "group",
							"children": [1, 2, 3, 4]
						}
					]
				}
			]
		},
		{
			"name": "lip",
			"children": [5, 6, 7, 8]
		}, 9]
}
