{
  "replace": false,
  "values": [
    "betterwithmods_mechanist:white_redstone_lamp",
    "betterwithmods_mechanist:orange_redstone_lamp",
    "betterwithmods_mechanist:magenta_redstone_lamp",
    "betterwithmods_mechanist:light_blue_redstone_lamp",
    "betterwithmods_mechanist:yellow_redstone_lamp",
    "betterwithmods_mechanist:lime_redstone_lamp",
    "betterwithmods_mechanist:pink_redstone_lamp",
    "betterwithmods_mechanist:gray_redstone_lamp",
    "betterwithmods_mechanist:light_gray_redstone_lamp",
    "betterwithmods_mechanist:cyan_redstone_lamp",
    "betterwithmods_mechanist:purple_redstone_lamp",
    "betterwithmods_mechanist:blue_redstone_lamp",
    "betterwithmods_mechanist:brown_redstone_lamp",
    "betterwithmods_mechanist:green_redstone_lamp",
    "betterwithmods_mechanist:red_redstone_lamp",
    "betterwithmods_mechanist:black_redstone_lamp",
    "minecraft:redstone_lamp"
  ]
}
