{
  "variants": {
    "orientation=down_north": {
      "model": "betterwithmods_mechanist:block/dynamic/corner/corner_rock"
    },
    "orientation=down_south": {
      "model": "betterwithmods_mechanist:block/dynamic/corner/corner_rock",
      "y": 90,
      "uvlock": true
    },
    "orientation=down_east": {
      "model": "betterwithmods_mechanist:block/dynamic/corner/corner_rock",
      "y": 270,
      "uvlock": true
    },
    "orientation=down_west": {
      "model": "betterwithmods_mechanist:block/dynamic/corner/corner_rock",
      "y": 180,
      "uvlock": true
    },
    "orientation=up_north": {
      "model": "betterwithmods_mechanist:block/dynamic/corner/corner_rock",
      "x": 90,
      "uvlock": true
    },
    "orientation=up_south": {
      "model": "betterwithmods_mechanist:block/dynamic/corner/corner_rock",
      "x": 90,
      "y": 90,
      "uvlock": true
    },
    "orientation=up_east": {
      "model": "betterwithmods_mechanist:block/dynamic/corner/corner_rock",
      "x": 90,
      "y": 270,
      "uvlock": true
    },
    "orientation=up_west": {
      "model": "betterwithmods_mechanist:block/dynamic/corner/corner_rock",
      "x": 90,
      "y": 180,
      "uvlock": true
    }
  }
}
