{
  "variants": {
    "snowy=false": [
      {
        "model": "betterwithmods_mechanist:block/slab/grass_slab"
      },
      {
        "model": "betterwithmods_mechanist:block/slab/grass_slab",
        "y": 90
      },
      {
        "model": "betterwithmods_mechanist:block/slab/grass_slab",
        "y": 180
      },
      {
        "model": "betterwithmods_mechanist:block/slab/grass_slab",
        "y": 270
      }
    ],
    "snowy=true": {
      "model": "betterwithmods_mechanist:block/slab/snowy_grass_slab"
    }
  }
}
