{
  "variants": {
    "age=0": { "model": "betterwithmods_mechanist:block/hemp/stage_0" },
    "age=1": { "model": "betterwithmods_mechanist:block/hemp/stage_1" },
    "age=2": { "model": "betterwithmods_mechanist:block/hemp/stage_2" },
    "age=3": { "model": "betterwithmods_mechanist:block/hemp/stage_3" },
    "age=4": { "model": "betterwithmods_mechanist:block/hemp/stage_4" },
    "age=5": { "model": "betterwithmods_mechanist:block/hemp/stage_5" },
    "age=6": { "model": "betterwithmods_mechanist:block/hemp/stage_6" },
    "age=7": { "model": "betterwithmods_mechanist:block/hemp/stage_7" }
  }
}
