{
  "variants": {
    "facing=up": {
      "model": "betterwithmods_mechanist:block/redstone/hibachi"
    },
    "facing=down": {
      "model": "betterwithmods_mechanist:block/redstone/hibachi",
      "x": 180
    },
    "facing=north": {
      "model": "betterwithmods_mechanist:block/redstone/hibachi",
      "x": 270,
      "y": 180
    },
    "facing=south": {
      "model": "betterwithmods_mechanist:block/redstone/hibachi",
      "x": 270
    },
    "facing=west": {
      "model": "betterwithmods_mechanist:block/redstone/hibachi",
      "x": 270,
      "y": 90
    },
    "facing=east": {
      "model": "betterwithmods_mechanist:block/redstone/hibachi",
      "x": 270,
      "y": 270
    }
  }
}
