{
  "result": {
    "item": "betterwithmods_mechanist:anchor"
  },
  "pattern": [
    " I ",
    "SSS"
  ],
  "type": "crafting_shaped",
  "key": {
    "S": {
      "tag": "forge:stone"
    },
    "I": {
      "tag": "forge:ingots/iron"
    }
  }
}
