{
  "result": {
    "item": "betterwithmods_mechanist:hibachi"
  },
  "pattern": [
    "HHH",
    "SES",
    "SRS"
  ],
  "type": "crafting_shaped",
  "key": {
    "R": {
      "tag": "forge:dusts/redstone"
    },
    "S": {
      "tag": "forge:stone"
    },
    "E": {
      "item": "betterwithmods_mechanist:element"
    },
    "H": {
      "item": "betterwithmods_mechanist:concentrated_hellfire"
    }
  }
}
