{
  "credit": "Made with Blockbench",
  "textures": {
    "particle": "betterwithmods_mechanist:block/rope/rope_vertical",
    "side": "betterwithmods_mechanist:block/rope/rope_vertical"
  },
  "elements": [
    {
      "name": "rope",
      "from": [7, 0, 7],
      "to": [9, 6, 9],
      "faces": {
        "north": {"uv": [0, 0, 2, 6], "texture": "#side"},
        "east": {"uv": [0, 0, 2, 6], "texture": "#side"},
        "south": {"uv": [0, 0, 2, 6], "texture": "#side"},
        "west": {"uv": [0, 0, 2, 6], "texture": "#side"},
        "up": {"uv": [0, 0, 2, 2], "texture": "#side"},
        "down": {"uv": [0, 0, 2, 2], "texture": "#side"}
      }
    }
  ]
}
