{
  "result": {
    "item": "betterwithmods_mechanist:soulforged_steel_armor_helm"
  },
  "pattern": [
    "III",
    "I I"
  ],
  "type": "crafting_shaped",
  "key": {
    "I": {
      "item": "betterwithmods_mechanist:soulforged_steel_ingot"
    }
  }
}
