{
  "parent": "minecraft:block/cube",
  "textures": {
    "particle": "#side",
    "down": "#back",
    "up": "#front",
    "north": "#side",
    "east": "#side",
    "south": "#side",
    "west": "#side"
  }
}
