{
  "credit": "Made with Blockbench",
  "parent": "block/block",
  "textures": {
    "all": "minecraft:block/oak_planks"
  },
  "elements": [
    {
      "from": [0, 0, 14],
      "to": [16, 16, 16],
      "faces": {
        "north": {"uv": [0, 0, 16, 16], "texture": "#all", "cullface": "north"},
        "east": {"uv": [0, 0, 14, 16], "texture": "#all", "cullface": "east"},
        "south": {"uv": [0, 0, 16, 16], "texture": "#all", "cullface": "south"},
        "west": {"uv": [2, 0, 16, 16], "texture": "#all", "cullface": "west"},
        "up": {"uv": [0, 2, 16, 16], "texture": "#all", "cullface": "up"},
        "down": {"uv": [0, 0, 16, 14], "texture": "#all", "cullface": "down"}
      }
    }
  ]
}
