{
  "conditions": [
    {
      "type": "forge:not",
      "value": {
        "type": "betterwithmods_mechanist:config",
        "enabled": "redstone_lamp"
      }
    }
  ],
  "type": "crafting_shaped",
  "pattern": [
    " R ",
    "RGR",
    " R "
  ],
  "key": {
    "R": {
      "item": "minecraft:redstone"
    },
    "G": {
      "item": "minecraft:glowstone"
    }
  },
  "result": {
    "item": "minecraft:redstone_lamp"
  }
}
