{
  "conditions": [
    {
      "type": "forge:not",
      "value": {
        "type": "betterwithmods_mechanist:config",
        "enabled": "lumber_chopping"
      }
    }
  ],
  "type": "crafting_shapeless",
  "group": "planks",
  "ingredients": [
    {
      "tag": "minecraft:spruce_logs"
    }
  ],
  "result": {
    "item": "minecraft:spruce_planks",
    "count": 4
  }
}
